-------------------------------------------------------------------------------
Test set: br.pucrio.inf.les.investprofile.service.impl.PosicaoManagerImplTest
-------------------------------------------------------------------------------
Tests run: 5, Failures: 0, Errors: 0, Skipped: 0, Time elapsed: 0.01 sec
