-------------------------------------------------------------------------------
Test set: br.pucrio.inf.les.investprofile.dao.RecomendacaoPerfilDaoTest
-------------------------------------------------------------------------------
Tests run: 1, Failures: 0, Errors: 0, Skipped: 0, Time elapsed: 0.033 sec
